5 Principal component analysis
…
This gives us the individual contributions to PC1 and PC2 for each observation.

If we wanted to know how much each variable is contributing to PC1 and PC2 we would have to use the loadings.

We can extract all the loadings as follows:

pca_fit %>% 
  tidy(matrix = "loadings")

# A tibble: 36 × 3
   column    PC   value
   <chr>  <dbl>   <dbl>
 1 weight     1  0.459 
 2 weight     2  0.151 
 3 weight     3  0.0423
 4 weight     4 -0.449 
 5 weight     5  0.745 
 6 weight     6 -0.0920
 7 wing       1  0.433 
 8 wing       2  0.195 
 9 wing       3 -0.841 
10 wing       4  0.208 
# ℹ 26 more rows
…
